# Blender v2.69 (sub 0) OBJ File: ''
# www.blender.org
mtllib planeTextured.mtl
o Plane
v 0.696654 0.203808 0.443026
v -0.952211 1.080581 -0.272873
v 1.263815 -0.250925 -1.420182
v -0.385050 0.125848 -2.036082

vt 0.000100 0.000100
vt 0.999900 0.000100
vt 0.999900 0.999900
vt 0.000100 0.999900
usemtl Material.001
s off
f 2/1 1/2 3/3
f 4/4 2/1 3/2